Chapter 5 SQL | A Minimal Book Example
…
Using R with the same goal.

gapminder_data %>%
  arrange(desc(life_expectancy))

## # A tibble: 10,545 × 9
##    country      year infant_mortality life_expectancy fertility population   gdp
##    <fct>       <int>            <dbl>           <dbl>     <dbl>      <dbl> <dbl>
##  1 Hong Kong,…  2016             NA              83.9     NA            NA    NA
##  2 Hong Kong,…  2015             NA              83.7      1.17    7287983    NA
##  3 Hong Kong,…  2014             NA              83.6      1.15    7226869    NA
##  4 Hong Kong,…  2013             NA              83.4      1.14    7163930    NA
##  5 Iceland      2014              1.6            83.3      2.07     327318    NA
##  6 Iceland      2015              1.6            83.3      2.06     329425    NA
##  7 Iceland      2016             NA              83.3     NA            NA    NA
##  8 Japan        2016             NA              83.3     NA            NA    NA
##  9 Hong Kong,…  2012             NA              83.2      1.12    7101858    NA
## 10 Iceland      2013              1.6            83.2      2.08     325392    NA
## # … with 10,535 more rows, and 2 more variables: continent <fct>, region <fct>
…
Again using R for the same goal.

tidy_flu_data %>%
  filter(tolower(country) == 'france' & !is.na(cases)) %>%
  arrange(year, month, day)

## # A tibble: 620 × 5
##    year  month day   country cases
##    <fct> <chr> <chr> <fct>   <int>
##  1 2003  09    28    France     25
##  2 2003  10    05    France     25
##  3 2003  10    12    France     30
##  4 2003  10    19    France     81
##  5 2003  10    26    France     82
##  6 2003  11    02    France     48
##  7 2003  11    09    France    146
##  8 2003  11    16    France    274
##  9 2003  11    23    France    877
## 10 2003  11    30    France   1282
## # … with 610 more rows
…
And again R for the same goal.

tidy_dengue_data %>%
  filter(!is.na(cases)) %>%
  arrange(desc(cases))

## # A tibble: 6,263 × 5
##    year  month day   country     cases
##    <fct> <chr> <chr> <fct>       <dbl>
##  1 2004  02    29    Indonesia       1
##  2 2005  09    11    Singapore       1
##  3 2008  04    06    Brazil          1
##  4 2009  02    08    Bolivia         1
##  5 2009  05    03    Argentina       1
##  6 2009  09    27    Mexico          1
##  7 2010  05    30    Venezuela       1
##  8 2010  08    29    Philippines     1
##  9 2012  10    21    India           1
## 10 2013  07    14    Thailand        1
## # … with 6,253 more rows
…
