Chapter 6 Reproducing an Analysis | Portfolio Twan
…
Now we can read the file into R.

# Read the excel file
C.elegans_data <- read_excel(path = "c.elegans/raw_data/CE.LIQ.FLOW.062_Tidydata.xlsx")

The file is now read into R.

6.2 Normalizing the data

# Display the important rows
C.elegans_data %>% select(c(RawData, compName, compConcentration)) 

## # A tibble: 360 × 3
##    RawData compName                   compConcentration
##      <dbl> <chr>                      <chr>            
##  1      44 2,6-diisopropylnaphthalene 4.99             
##  2      37 2,6-diisopropylnaphthalene 4.99             
##  3      45 2,6-diisopropylnaphthalene 4.99             
##  4      47 2,6-diisopropylnaphthalene 4.99             
##  5      41 2,6-diisopropylnaphthalene 4.99             
##  6      35 2,6-diisopropylnaphthalene 4.99             
##  7      41 2,6-diisopropylnaphthalene 4.99             
##  8      36 2,6-diisopropylnaphthalene 4.99             
##  9      40 2,6-diisopropylnaphthalene 4.99             
## 10      38 2,6-diisopropylnaphthalene 4.99             
## # … with 350 more rows

Here we see that compConcentration is of chr type, so we have to change it into a numeric type.

# Use parse_number to change the conecentration into numeric
C.elegans_data$compConcentration <- parse_number(C.elegans_data$compConcentration)

# Display the rows again
C.elegans_data %>% select(c(RawData, compName, compConcentration)) 

## # A tibble: 360 × 3
##    RawData compName                   compConcentration
##      <dbl> <chr>                                  <dbl>
##  1      44 2,6-diisopropylnaphthalene              4.99
##  2      37 2,6-diisopropylnaphthalene              4.99
##  3      45 2,6-diisopropylnaphthalene              4.99
##  4      47 2,6-diisopropylnaphthalene              4.99
##  5      41 2,6-diisopropylnaphthalene              4.99
##  6      35 2,6-diisopropylnaphthalene              4.99
##  7      41 2,6-diisopropylnaphthalene              4.99
##  8      36 2,6-diisopropylnaphthalene              4.99
##  9      40 2,6-diisopropylnaphthalene              4.99
## 10      38 2,6-diisopropylnaphthalene              4.99
## # … with 350 more rows
…
